%YAML 1.1
%TAG !u! tag:unity3d.com,2011:
--- !u!78 &1
TagManager:
  serializedVersion: 2
  tags:
  - Opsamlingsting
  - Spawn point
  - ClimbPoint
  - Menu
  - Button
  - MenuControler
  layers:
  - Default
  - TransparentFX
  - Ignore Raycast
  - 
  - Water
  - UI
  - 
  - 
  - 
  - 
  - 
  - 
  - 
  - 
  - 
  - 
  - 
  - 
  - 
  - 
  - 
  - 
  - 
  - 
  - 
  - 
  - 
  - 
  - 
  - 
  - 
  - 
  m_SortingLayers:
  - name: Default
    uniqueID: 0
    locked: 0
  - name: image_1
    uniqueID: 550032409
    locked: 0
  - name: UI
    uniqueID: 278765903
    locked: 0
  - name: Image2
    uniqueID: 3029961333
    locked: 0
