%YAML 1.1
%TAG !u! tag:unity3d.com,2011:
--- !u!114 &-7277942773192667000
MonoBehaviour:
  m_ObjectHideFlags: 0
  m_CorrespondingSourceObject: {fileID: 0}
  m_PrefabInstance: {fileID: 0}
  m_PrefabAsset: {fileID: 0}
  m_GameObject: {fileID: 0}
  m_Enabled: 1
  m_EditorHideFlags: 0
  m_Script: {fileID: 11500000, guid: f4c3631f5e58749a59194e0cf6baf6d5, type: 3}
  m_Name: Android Providers
  m_EditorClassIdentifier: 
  m_RequiresSettingsUpdate: 0
  m_AutomaticLoading: 0
  m_AutomaticRunning: 0
  m_Loaders:
  - {fileID: 11400000, guid: a90fe15de6828c04eb3b40e72e5dcb3a, type: 2}
--- !u!114 &-4668326671935545596
MonoBehaviour:
  m_ObjectHideFlags: 0
  m_CorrespondingSourceObject: {fileID: 0}
  m_PrefabInstance: {fileID: 0}
  m_PrefabAsset: {fileID: 0}
  m_GameObject: {fileID: 0}
  m_Enabled: 1
  m_EditorHideFlags: 0
  m_Script: {fileID: 11500000, guid: d236b7d11115f2143951f1e14045df39, type: 3}
  m_Name: Android Settings
  m_EditorClassIdentifier: 
  m_LoaderManagerInstance: {fileID: -7277942773192667000}
  m_InitManagerOnStart: 1
--- !u!114 &-1191251482143436679
MonoBehaviour:
  m_ObjectHideFlags: 0
  m_CorrespondingSourceObject: {fileID: 0}
  m_PrefabInstance: {fileID: 0}
  m_PrefabAsset: {fileID: 0}
  m_GameObject: {fileID: 0}
  m_Enabled: 1
  m_EditorHideFlags: 0
  m_Script: {fileID: 11500000, guid: d236b7d11115f2143951f1e14045df39, type: 3}
  m_Name: Standalone Settings
  m_EditorClassIdentifier: 
  m_LoaderManagerInstance: {fileID: 415653290173390898}
  m_InitManagerOnStart: 1
--- !u!114 &11400000
MonoBehaviour:
  m_ObjectHideFlags: 0
  m_CorrespondingSourceObject: {fileID: 0}
  m_PrefabInstance: {fileID: 0}
  m_PrefabAsset: {fileID: 0}
  m_GameObject: {fileID: 0}
  m_Enabled: 1
  m_EditorHideFlags: 0
  m_Script: {fileID: 11500000, guid: d2dc886499c26824283350fa532d087d, type: 3}
  m_Name: XRGeneralSettings
  m_EditorClassIdentifier: 
  Keys: 0700000001000000
  Values:
  - {fileID: -4668326671935545596}
  - {fileID: -1191251482143436679}
--- !u!114 &415653290173390898
MonoBehaviour:
  m_ObjectHideFlags: 0
  m_CorrespondingSourceObject: {fileID: 0}
  m_PrefabInstance: {fileID: 0}
  m_PrefabAsset: {fileID: 0}
  m_GameObject: {fileID: 0}
  m_Enabled: 1
  m_EditorHideFlags: 0
  m_Script: {fileID: 11500000, guid: f4c3631f5e58749a59194e0cf6baf6d5, type: 3}
  m_Name: Standalone Providers
  m_EditorClassIdentifier: 
  m_RequiresSettingsUpdate: 0
  m_AutomaticLoading: 0
  m_AutomaticRunning: 0
  m_Loaders:
  - {fileID: 11400000, guid: a90fe15de6828c04eb3b40e72e5dcb3a, type: 2}
