%YAML 1.1
%TAG !u! tag:unity3d.com,2011:
--- !u!162 &1
EditorUserSettings:
  m_ObjectHideFlags: 0
  serializedVersion: 4
  m_ConfigSettings:
    RecentlyUsedScenePath-0:
      value: 22424703114646740e1b0037036c6c111b07142f0a3a273d283e1221e9af012be3e033a6cb353c33340dfb350b304f2afc031d12
      flags: 0
    RecentlyUsedScenePath-1:
      value: 22424703114646680e0b0227036c6c111b07142f1f2b233e2867083debf42d
      flags: 0
    RecentlyUsedScenePath-2:
      value: 22424703114646680e0b0227036c6b1505034a6439262f2434
      flags: 0
    RecentlyUsedScenePath-3:
      value: 22424703114646740e1b0037036c6c111b07142f0a3a273d283e1221e9af012be3e033a6c42f2c28360fc73d0a3a1271e704001fef
      flags: 0
    RecentlyUsedScenePath-4:
      value: 22424703114646740e1b0037036c6c111b07142f0a3a273d283e1221e9af012be3e033a6cf3b31382a2be128012c003ce6030605c2190b021f3dfe0b1ffa5e061fcc0cdc
      flags: 0
    RecentlyUsedScenePath-5:
      value: 22424703114646740e1b0037036c6c111b07142f0a3a273d283e1221e9af012be3e033a6c42f2c28360fcc330a2a1330fe060c19e5451f05181ae4
      flags: 0
    RecentlyUsedScenePath-6:
      value: 22424703114646680e0b0227036c7c1f1a1b11392527282305281337d6f2353be9a923e7ee2e26
      flags: 0
    RecentlyUsedScenePath-7:
      value: 22424703114646680e0b0227036c7c1f1a1b113925272823633c133af6f9
      flags: 0
    RecentlyUsedScenePath-8:
      value: 22424703114646680e0b0227036c721f001a1d24381c23233967083debf42d
      flags: 0
    RecentlyUsedScenePath-9:
      value: 22424703114646680e0b0227036c7c1c1f1a1a1e293b327e38271427fb
      flags: 0
    vcSharedLogLevel:
      value: 0d5e400f0650
      flags: 0
  m_VCAutomaticAdd: 1
  m_VCDebugCom: 0
  m_VCDebugCmd: 0
  m_VCDebugOut: 0
  m_SemanticMergeMode: 2
  m_VCShowFailedCheckout: 1
  m_VCOverwriteFailedCheckoutAssets: 1
  m_VCProjectOverlayIcons: 1
  m_VCHierarchyOverlayIcons: 1
  m_VCOtherOverlayIcons: 1
  m_VCAllowAsyncUpdate: 1
