[api-updater (non-obsolete-error-filter)] 18-12-2021 20:47:38 : Starting E:/Unity/Editor/2020.3.23f1/Editor/Data/Tools/ScriptUpdater/APIUpdater.NonObsoleteApiUpdaterDetector.exe
[api-updater (non-obsolete-error-filter)] 
----------------------------------
jit/startup time      : 1487,9879ms
moved types parse time: 63ms
candidates parse time : 0ms
C# parse time         : 988ms
candidates check time : 53ms
console write time    : 25ms

[api-updater (non-obsolete-error-filter)] 15-01-2022 04:07:55 : Starting E:/Unity/Editor/2020.3.23f1/Editor/Data/Tools/ScriptUpdater/APIUpdater.NonObsoleteApiUpdaterDetector.exe
[api-updater (non-obsolete-error-filter)] 
----------------------------------
jit/startup time      : 1435,0508ms
moved types parse time: 112ms
candidates parse time : 0ms
C# parse time         : 990ms
candidates check time : 36ms
console write time    : 5ms

[api-updater (non-obsolete-error-filter)] 15-01-2022 11:48:12 : Starting E:/Unity/Editor/2020.3.23f1/Editor/Data/Tools/ScriptUpdater/APIUpdater.NonObsoleteApiUpdaterDetector.exe
[api-updater (non-obsolete-error-filter)] Exception caught while loading types from E:\VRBoulders\VRBoulders APP\Library\ScriptAssemblies\Unity.CollabProxy.Editor.dll (some types may not be loaded)
	Exception of type 'System.Reflection.ReflectionTypeLoadException' was thrown.
	  at (wrapper managed-to-native) System.Reflection.Assembly.GetTypes(System.Reflection.Assembly,bool)
  at System.Reflection.Assembly.GetTypes () [0x00000] in <695d1cc93cca45069c528c15c9fdd749>:0 
  at APIUpdater.NonObsoleteApiUpdaterDetector.ExtraInfoParser+<LoadTypesWithMovedFromAttributeAsync>d__3.MoveNext () [0x000c8] in <68bff7873e0e4aa69a14dfc30bebbe3e>:0 
	Could not load file or assembly 'UnityEditor.CoreModule, Version=0.0.0.0, Culture=neutral, PublicKeyToken=null' or one of its dependencies.

[api-updater (non-obsolete-error-filter)] Exception caught while loading types from E:\VRBoulders\VRBoulders APP\Library\ScriptAssemblies\Unity.TextMeshPro.Editor.dll (some types may not be loaded)
	Exception of type 'System.Reflection.ReflectionTypeLoadException' was thrown.
	  at (wrapper managed-to-native) System.Reflection.Assembly.GetTypes(System.Reflection.Assembly,bool)
  at System.Reflection.Assembly.GetTypes () [0x00000] in <695d1cc93cca45069c528c15c9fdd749>:0 
  at APIUpdater.NonObsoleteApiUpdaterDetector.ExtraInfoParser+<LoadTypesWithMovedFromAttributeAsync>d__3.MoveNext () [0x000c8] in <68bff7873e0e4aa69a14dfc30bebbe3e>:0 
	Could not load file or assembly 'UnityEditor.CoreModule, Version=0.0.0.0, Culture=neutral, PublicKeyToken=null' or one of its dependencies.

[api-updater (non-obsolete-error-filter)] 
----------------------------------
jit/startup time      : 1716,257ms
moved types parse time: 300ms
candidates parse time : 9ms
C# parse time         : 797ms
candidates check time : 109ms
console write time    : 7ms

[api-updater (non-obsolete-error-filter)] 17-01-2022 17:52:53 : Starting E:/Unity/Editor/2020.3.23f1/Editor/Data/Tools/ScriptUpdater/APIUpdater.NonObsoleteApiUpdaterDetector.exe
[api-updater (non-obsolete-error-filter)] 
----------------------------------
jit/startup time      : 1106,8755ms
moved types parse time: 44ms
candidates parse time : 0ms
C# parse time         : 1425ms
candidates check time : 35ms
console write time    : 0ms

[api-updater (non-obsolete-error-filter)] 17-01-2022 17:55:43 : Starting E:/Unity/Editor/2020.3.23f1/Editor/Data/Tools/ScriptUpdater/APIUpdater.NonObsoleteApiUpdaterDetector.exe
[api-updater (non-obsolete-error-filter)] 
----------------------------------
jit/startup time      : 77,4271ms
moved types parse time: 44ms
candidates parse time : 1ms
C# parse time         : 149ms
candidates check time : 24ms
console write time    : 0ms

[api-updater (non-obsolete-error-filter)] 17-01-2022 18:10:10 : Starting E:/Unity/Editor/2020.3.23f1/Editor/Data/Tools/ScriptUpdater/APIUpdater.NonObsoleteApiUpdaterDetector.exe
[api-updater (non-obsolete-error-filter)] 
----------------------------------
jit/startup time      : 71,4306ms
moved types parse time: 46ms
candidates parse time : 1ms
C# parse time         : 156ms
candidates check time : 26ms
console write time    : 0ms

[api-updater (non-obsolete-error-filter)] 17-01-2022 18:11:12 : Starting E:/Unity/Editor/2020.3.23f1/Editor/Data/Tools/ScriptUpdater/APIUpdater.NonObsoleteApiUpdaterDetector.exe
[api-updater (non-obsolete-error-filter)] 
----------------------------------
jit/startup time      : 71,9251ms
moved types parse time: 44ms
candidates parse time : 1ms
C# parse time         : 158ms
candidates check time : 24ms
console write time    : 0ms

[api-updater (non-obsolete-error-filter)] 17-01-2022 18:12:40 : Starting E:/Unity/Editor/2020.3.23f1/Editor/Data/Tools/ScriptUpdater/APIUpdater.NonObsoleteApiUpdaterDetector.exe
[api-updater (non-obsolete-error-filter)] 
----------------------------------
jit/startup time      : 71,9261ms
moved types parse time: 51ms
candidates parse time : 1ms
C# parse time         : 168ms
candidates check time : 29ms
console write time    : 0ms

[api-updater (non-obsolete-error-filter)] 17-01-2022 18:57:50 : Starting E:/Unity/Editor/2020.3.23f1/Editor/Data/Tools/ScriptUpdater/APIUpdater.NonObsoleteApiUpdaterDetector.exe
[api-updater (non-obsolete-error-filter)] 
----------------------------------
jit/startup time      : 130,8657ms
moved types parse time: 43ms
candidates parse time : 1ms
C# parse time         : 151ms
candidates check time : 23ms
console write time    : 0ms

[api-updater (non-obsolete-error-filter)] 17-01-2022 18:58:12 : Starting E:/Unity/Editor/2020.3.23f1/Editor/Data/Tools/ScriptUpdater/APIUpdater.NonObsoleteApiUpdaterDetector.exe
[api-updater (non-obsolete-error-filter)] 
----------------------------------
jit/startup time      : 173,3255ms
moved types parse time: 44ms
candidates parse time : 1ms
C# parse time         : 230ms
candidates check time : 26ms
console write time    : 0ms

[api-updater (non-obsolete-error-filter)] 17-01-2022 18:58:59 : Starting E:/Unity/Editor/2020.3.23f1/Editor/Data/Tools/ScriptUpdater/APIUpdater.NonObsoleteApiUpdaterDetector.exe
[api-updater (non-obsolete-error-filter)] 
----------------------------------
jit/startup time      : 90,9068ms
moved types parse time: 49ms
candidates parse time : 1ms
C# parse time         : 158ms
candidates check time : 27ms
console write time    : 0ms

[api-updater (non-obsolete-error-filter)] 17-01-2022 19:00:45 : Starting E:/Unity/Editor/2020.3.23f1/Editor/Data/Tools/ScriptUpdater/APIUpdater.NonObsoleteApiUpdaterDetector.exe
[api-updater (non-obsolete-error-filter)] 
----------------------------------
jit/startup time      : 190,8045ms
moved types parse time: 44ms
candidates parse time : 1ms
C# parse time         : 248ms
candidates check time : 29ms
console write time    : 0ms

[api-updater (non-obsolete-error-filter)] 21-01-2022 16:40:56 : Starting E:/Unity/Editor/2020.3.23f1/Editor/Data/Tools/ScriptUpdater/APIUpdater.NonObsoleteApiUpdaterDetector.exe
[api-updater (non-obsolete-error-filter)] 
----------------------------------
jit/startup time      : 1681,2975ms
moved types parse time: 47ms
candidates parse time : 0ms
C# parse time         : 789ms
candidates check time : 34ms
console write time    : 11ms

[api-updater (non-obsolete-error-filter)] 21-01-2022 16:42:48 : Starting E:/Unity/Editor/2020.3.23f1/Editor/Data/Tools/ScriptUpdater/APIUpdater.NonObsoleteApiUpdaterDetector.exe
[api-updater (non-obsolete-error-filter)] 
----------------------------------
jit/startup time      : 70,9273ms
moved types parse time: 44ms
candidates parse time : 0ms
C# parse time         : 147ms
candidates check time : 25ms
console write time    : 0ms

